{
    "updateInfo":{
        "appName": "MYPOS",
        "appDescription": "Your personal MYAccounts-compatible Mobile POS",
        "packageName": "biz.myaccounts.pos",
        "versionCode": "8",
        "versionName": "1.8",
        "forceUpdate": false,
        "autoUpdate": true,
        "apkUrl": "https://bitbucket.org/nemesisfixx/mypos-android-binaries/raw/master/MYPOS.apk",
	"message": "Now using Unit Sales Price for sub-units"
    }
}

